\@ifundefined {etoctocstyle}{\let \etoc@startlocaltoc \@gobble \let \etoc@settocdepth \@gobble \let \etoc@depthtag \@gobble \let \etoc@setlocaltop \@gobble }{}
\contentsline {chapter}{\numberline {1}Main Page}{1}{chapter.1}%
\contentsline {section}{\numberline {1.1}U\discretionary {\mbox {\scriptsize $\hookleftarrow $}}{}{}N\discretionary {\mbox {\scriptsize $\hookleftarrow $}}{}{}I\discretionary {\mbox {\scriptsize $\hookleftarrow $}}{}{}Q\discretionary {\mbox {\scriptsize $\hookleftarrow $}}{}{}O\discretionary {\mbox {\scriptsize $\hookleftarrow $}}{}{}R\discretionary {\mbox {\scriptsize $\hookleftarrow $}}{}{}N – Universal Neural Network Interface for Quantum Observable Readout from N-\/body wavefunctions}{1}{section.1.1}%
\contentsline {subsubsection}{\numberline {1.1.0.1}Introduction}{1}{subsubsection.1.1.0.1}%
\contentsline {subsubsection}{\numberline {1.1.0.2}Prerequisites}{1}{subsubsection.1.1.0.2}%
\contentsline {subsubsection}{\numberline {1.1.0.3}Structure of the repository}{2}{subsubsection.1.1.0.3}%
\contentsline {subsubsection}{\numberline {1.1.0.4}Quickstart tutorial}{3}{subsubsection.1.1.0.4}%
\contentsline {subsubsection}{\numberline {1.1.0.5}Running the code for a single set of hyperparameters}{3}{subsubsection.1.1.0.5}%
\contentsline {subsubsection}{\numberline {1.1.0.6}Performing a hyperparameter optimization with H\discretionary {\mbox {\scriptsize $\hookleftarrow $}}{}{}P\discretionary {\mbox {\scriptsize $\hookleftarrow $}}{}{}Bandster}{4}{subsubsection.1.1.0.6}%
\contentsline {chapter}{\numberline {2}Namespace Index}{5}{chapter.2}%
\contentsline {section}{\numberline {2.1}Namespace List}{5}{section.2.1}%
\contentsline {chapter}{\numberline {3}Hierarchical Index}{7}{chapter.3}%
\contentsline {section}{\numberline {3.1}Class Hierarchy}{7}{section.3.1}%
\contentsline {chapter}{\numberline {4}Class Index}{9}{chapter.4}%
\contentsline {section}{\numberline {4.1}Class List}{9}{section.4.1}%
\contentsline {chapter}{\numberline {5}File Index}{11}{chapter.5}%
\contentsline {section}{\numberline {5.1}File List}{11}{section.5.1}%
\contentsline {chapter}{\numberline {6}Namespace Documentation}{13}{chapter.6}%
\contentsline {section}{\numberline {6.1}Data\discretionary {\mbox {\scriptsize $\hookleftarrow $}}{}{}Generator Namespace Reference}{13}{section.6.1}%
\contentsline {subsection}{\numberline {6.1.1}Function Documentation}{13}{subsection.6.1.1}%
\contentsline {subsubsection}{\numberline {6.1.1.1}InitializeDataGenerators()}{13}{subsubsection.6.1.1.1}%
\contentsline {subsection}{\numberline {6.1.2}Variable Documentation}{14}{subsection.6.1.2}%
\contentsline {subsubsection}{\numberline {6.1.2.1}tqdm\_avail}{14}{subsubsection.6.1.2.1}%
\contentsline {section}{\numberline {6.2}Data\discretionary {\mbox {\scriptsize $\hookleftarrow $}}{}{}Loading Namespace Reference}{14}{section.6.2}%
\contentsline {subsection}{\numberline {6.2.1}Function Documentation}{14}{subsection.6.2.1}%
\contentsline {subsubsection}{\numberline {6.2.1.1}data\_ID\_loader()}{15}{subsubsection.6.2.1.1}%
\contentsline {subsubsection}{\numberline {6.2.1.2}DataThresholdSelection()}{16}{subsubsection.6.2.1.2}%
\contentsline {subsubsection}{\numberline {6.2.1.3}extractor()}{17}{subsubsection.6.2.1.3}%
\contentsline {subsubsection}{\numberline {6.2.1.4}label\_ID\_loader()}{18}{subsubsection.6.2.1.4}%
\contentsline {subsection}{\numberline {6.2.2}Variable Documentation}{19}{subsection.6.2.2}%
\contentsline {subsubsection}{\numberline {6.2.2.1}\_}{19}{subsubsection.6.2.2.1}%
\contentsline {subsubsection}{\numberline {6.2.2.2}content}{19}{subsubsection.6.2.2.2}%
\contentsline {subsubsection}{\numberline {6.2.2.3}file\_x\_boundaries}{19}{subsubsection.6.2.2.3}%
\contentsline {subsubsection}{\numberline {6.2.2.4}FRAG}{19}{subsubsection.6.2.2.4}%
\contentsline {subsubsection}{\numberline {6.2.2.5}last\_line}{19}{subsubsection.6.2.2.5}%
\contentsline {subsubsection}{\numberline {6.2.2.6}lines}{19}{subsubsection.6.2.2.6}%
\contentsline {subsubsection}{\numberline {6.2.2.7}no\_of\_columns}{20}{subsubsection.6.2.2.7}%
\contentsline {subsubsection}{\numberline {6.2.2.8}NShots}{20}{subsubsection.6.2.2.8}%
\contentsline {subsubsection}{\numberline {6.2.2.9}Ntot}{20}{subsubsection.6.2.2.9}%
\contentsline {subsubsection}{\numberline {6.2.2.10}ThisData}{20}{subsubsection.6.2.2.10}%
\contentsline {subsubsection}{\numberline {6.2.2.11}toskip}{20}{subsubsection.6.2.2.11}%
\contentsline {subsubsection}{\numberline {6.2.2.12}VizGrid}{20}{subsubsection.6.2.2.12}%
\contentsline {subsubsection}{\numberline {6.2.2.13}Xmax}{20}{subsubsection.6.2.2.13}%
\contentsline {subsubsection}{\numberline {6.2.2.14}Xmin}{21}{subsubsection.6.2.2.14}%
\contentsline {section}{\numberline {6.3}Data\discretionary {\mbox {\scriptsize $\hookleftarrow $}}{}{}Preprocessing Namespace Reference}{21}{section.6.3}%
\contentsline {subsection}{\numberline {6.3.1}Function Documentation}{21}{subsection.6.3.1}%
\contentsline {subsubsection}{\numberline {6.3.1.1}data\_refiner()}{21}{subsubsection.6.3.1.1}%
\contentsline {subsubsection}{\numberline {6.3.1.2}main()}{22}{subsubsection.6.3.1.2}%
\contentsline {subsubsection}{\numberline {6.3.1.3}manipulate\_super\_class()}{23}{subsubsection.6.3.1.3}%
\contentsline {subsubsection}{\numberline {6.3.1.4}manipulate\_super\_regr()}{24}{subsubsection.6.3.1.4}%
\contentsline {subsubsection}{\numberline {6.3.1.5}manipulate\_unsuper\_class()}{24}{subsubsection.6.3.1.5}%
\contentsline {subsubsection}{\numberline {6.3.1.6}manipulate\_unsuper\_regr()}{25}{subsubsection.6.3.1.6}%
\contentsline {section}{\numberline {6.4}Error\discretionary {\mbox {\scriptsize $\hookleftarrow $}}{}{}\_\discretionary {\mbox {\scriptsize $\hookleftarrow $}}{}{}from\discretionary {\mbox {\scriptsize $\hookleftarrow $}}{}{}\_\discretionary {\mbox {\scriptsize $\hookleftarrow $}}{}{}formula Namespace Reference}{26}{section.6.4}%
\contentsline {subsection}{\numberline {6.4.1}Variable Documentation}{26}{subsection.6.4.1}%
\contentsline {subsubsection}{\numberline {6.4.1.1}ax}{26}{subsubsection.6.4.1.1}%
\contentsline {subsubsection}{\numberline {6.4.1.2}DataString}{27}{subsubsection.6.4.1.2}%
\contentsline {subsubsection}{\numberline {6.4.1.3}ecolor}{27}{subsubsection.6.4.1.3}%
\contentsline {subsubsection}{\numberline {6.4.1.4}fig}{27}{subsubsection.6.4.1.4}%
\contentsline {subsubsection}{\numberline {6.4.1.5}fmt}{27}{subsubsection.6.4.1.5}%
\contentsline {subsubsection}{\numberline {6.4.1.6}fname}{27}{subsubsection.6.4.1.6}%
\contentsline {subsubsection}{\numberline {6.4.1.7}LabelString}{27}{subsubsection.6.4.1.7}%
\contentsline {subsubsection}{\numberline {6.4.1.8}Learn}{27}{subsubsection.6.4.1.8}%
\contentsline {subsubsection}{\numberline {6.4.1.9}legend}{28}{subsubsection.6.4.1.9}%
\contentsline {subsubsection}{\numberline {6.4.1.10}loc}{28}{subsubsection.6.4.1.10}%
\contentsline {subsubsection}{\numberline {6.4.1.11}local\_err}{28}{subsubsection.6.4.1.11}%
\contentsline {subsubsection}{\numberline {6.4.1.12}momData}{28}{subsubsection.6.4.1.12}%
\contentsline {subsubsection}{\numberline {6.4.1.13}momLabels}{28}{subsubsection.6.4.1.13}%
\contentsline {subsubsection}{\numberline {6.4.1.14}NDatasets}{28}{subsubsection.6.4.1.14}%
\contentsline {subsubsection}{\numberline {6.4.1.15}NShots}{28}{subsubsection.6.4.1.15}%
\contentsline {subsubsection}{\numberline {6.4.1.16}NShotsPerSample}{28}{subsubsection.6.4.1.16}%
\contentsline {subsubsection}{\numberline {6.4.1.17}NSPS}{29}{subsubsection.6.4.1.17}%
\contentsline {subsubsection}{\numberline {6.4.1.18}rho}{29}{subsubsection.6.4.1.18}%
\contentsline {subsubsection}{\numberline {6.4.1.19}rho2}{29}{subsubsection.6.4.1.19}%
\contentsline {subsubsection}{\numberline {6.4.1.20}scores}{29}{subsubsection.6.4.1.20}%
\contentsline {subsubsection}{\numberline {6.4.1.21}thiserr}{29}{subsubsection.6.4.1.21}%
\contentsline {subsubsection}{\numberline {6.4.1.22}training\_generator}{29}{subsubsection.6.4.1.22}%
\contentsline {subsubsection}{\numberline {6.4.1.23}validation\_generator}{29}{subsubsection.6.4.1.23}%
\contentsline {subsubsection}{\numberline {6.4.1.24}x\_data}{29}{subsubsection.6.4.1.24}%
\contentsline {subsubsection}{\numberline {6.4.1.25}X\_train}{30}{subsubsection.6.4.1.25}%
\contentsline {subsubsection}{\numberline {6.4.1.26}X\_val}{30}{subsubsection.6.4.1.26}%
\contentsline {subsubsection}{\numberline {6.4.1.27}xlabel}{30}{subsubsection.6.4.1.27}%
\contentsline {subsubsection}{\numberline {6.4.1.28}y\_data}{30}{subsubsection.6.4.1.28}%
\contentsline {subsubsection}{\numberline {6.4.1.29}y\_train}{30}{subsubsection.6.4.1.29}%
\contentsline {subsubsection}{\numberline {6.4.1.30}y\_val}{30}{subsubsection.6.4.1.30}%
\contentsline {subsubsection}{\numberline {6.4.1.31}yerr}{30}{subsubsection.6.4.1.31}%
\contentsline {subsubsection}{\numberline {6.4.1.32}ylabel}{30}{subsubsection.6.4.1.32}%
\contentsline {section}{\numberline {6.5}functions Namespace Reference}{31}{section.6.5}%
\contentsline {subsection}{\numberline {6.5.1}Function Documentation}{31}{subsection.6.5.1}%
\contentsline {subsubsection}{\numberline {6.5.1.1}G2FromSS()}{31}{subsubsection.6.5.1.1}%
\contentsline {subsubsection}{\numberline {6.5.1.2}histogrammer()}{31}{subsubsection.6.5.1.2}%
\contentsline {subsubsection}{\numberline {6.5.1.3}normalizer()}{31}{subsubsection.6.5.1.3}%
\contentsline {subsubsection}{\numberline {6.5.1.4}randomize()}{32}{subsubsection.6.5.1.4}%
\contentsline {subsubsection}{\numberline {6.5.1.5}replaceAll()}{32}{subsubsection.6.5.1.5}%
\contentsline {subsubsection}{\numberline {6.5.1.6}Rho2FromSS()}{32}{subsubsection.6.5.1.6}%
\contentsline {subsubsection}{\numberline {6.5.1.7}RhoFromSS()}{32}{subsubsection.6.5.1.7}%
\contentsline {subsubsection}{\numberline {6.5.1.8}RunThis()}{33}{subsubsection.6.5.1.8}%
\contentsline {subsubsection}{\numberline {6.5.1.9}SpaceString()}{33}{subsubsection.6.5.1.9}%
\contentsline {section}{\numberline {6.6}Hyper\discretionary {\mbox {\scriptsize $\hookleftarrow $}}{}{}Parameter\discretionary {\mbox {\scriptsize $\hookleftarrow $}}{}{}Opt Namespace Reference}{33}{section.6.6}%
\contentsline {subsection}{\numberline {6.6.1}Variable Documentation}{33}{subsection.6.6.1}%
\contentsline {subsubsection}{\numberline {6.6.1.1}all\_runs}{34}{subsubsection.6.6.1.1}%
\contentsline {subsubsection}{\numberline {6.6.1.2}args}{34}{subsubsection.6.6.1.2}%
\contentsline {subsubsection}{\numberline {6.6.1.3}background}{34}{subsubsection.6.6.1.3}%
\contentsline {subsubsection}{\numberline {6.6.1.4}bohb}{34}{subsubsection.6.6.1.4}%
\contentsline {subsubsection}{\numberline {6.6.1.5}default}{34}{subsubsection.6.6.1.5}%
\contentsline {subsubsection}{\numberline {6.6.1.6}float}{34}{subsubsection.6.6.1.6}%
\contentsline {subsubsection}{\numberline {6.6.1.7}help}{34}{subsubsection.6.6.1.7}%
\contentsline {subsubsection}{\numberline {6.6.1.8}id2config}{35}{subsubsection.6.6.1.8}%
\contentsline {subsubsection}{\numberline {6.6.1.9}incumbent}{35}{subsubsection.6.6.1.9}%
\contentsline {subsubsection}{\numberline {6.6.1.10}int}{35}{subsubsection.6.6.1.10}%
\contentsline {subsubsection}{\numberline {6.6.1.11}level}{35}{subsubsection.6.6.1.11}%
\contentsline {subsubsection}{\numberline {6.6.1.12}NS}{35}{subsubsection.6.6.1.12}%
\contentsline {subsubsection}{\numberline {6.6.1.13}parser}{35}{subsubsection.6.6.1.13}%
\contentsline {subsubsection}{\numberline {6.6.1.14}res}{35}{subsubsection.6.6.1.14}%
\contentsline {subsubsection}{\numberline {6.6.1.15}result\_logger}{36}{subsubsection.6.6.1.15}%
\contentsline {subsubsection}{\numberline {6.6.1.16}shutdown\_workers}{36}{subsubsection.6.6.1.16}%
\contentsline {subsubsection}{\numberline {6.6.1.17}str}{36}{subsubsection.6.6.1.17}%
\contentsline {subsubsection}{\numberline {6.6.1.18}type}{36}{subsubsection.6.6.1.18}%
\contentsline {subsubsection}{\numberline {6.6.1.19}w}{36}{subsubsection.6.6.1.19}%
\contentsline {subsubsection}{\numberline {6.6.1.20}workers}{36}{subsubsection.6.6.1.20}%
\contentsline {section}{\numberline {6.7}Hyper\discretionary {\mbox {\scriptsize $\hookleftarrow $}}{}{}Parameter\discretionary {\mbox {\scriptsize $\hookleftarrow $}}{}{}Opt\discretionary {\mbox {\scriptsize $\hookleftarrow $}}{}{}\_\discretionary {\mbox {\scriptsize $\hookleftarrow $}}{}{}\discretionary {\mbox {\scriptsize $\hookleftarrow $}}{}{}Worker Namespace Reference}{36}{section.6.7}%
\contentsline {section}{\numberline {6.8}Models Namespace Reference}{37}{section.6.8}%
\contentsline {subsection}{\numberline {6.8.1}Function Documentation}{37}{subsection.6.8.1}%
\contentsline {subsubsection}{\numberline {6.8.1.1}archive()}{37}{subsubsection.6.8.1.1}%
\contentsline {subsubsection}{\numberline {6.8.1.2}clear()}{38}{subsubsection.6.8.1.2}%
\contentsline {subsubsection}{\numberline {6.8.1.3}custom()}{38}{subsubsection.6.8.1.3}%
\contentsline {subsubsection}{\numberline {6.8.1.4}default()}{38}{subsubsection.6.8.1.4}%
\contentsline {subsection}{\numberline {6.8.2}Variable Documentation}{39}{subsection.6.8.2}%
\contentsline {subsubsection}{\numberline {6.8.2.1}threshold}{39}{subsubsection.6.8.2.1}%
\contentsline {section}{\numberline {6.9}Model\discretionary {\mbox {\scriptsize $\hookleftarrow $}}{}{}Training\discretionary {\mbox {\scriptsize $\hookleftarrow $}}{}{}And\discretionary {\mbox {\scriptsize $\hookleftarrow $}}{}{}Validation Namespace Reference}{39}{section.6.9}%
\contentsline {subsection}{\numberline {6.9.1}Function Documentation}{40}{subsection.6.9.1}%
\contentsline {subsubsection}{\numberline {6.9.1.1}ApplyInterpolation()}{40}{subsubsection.6.9.1.1}%
\contentsline {subsubsection}{\numberline {6.9.1.2}Interpolation\_MSE()}{40}{subsubsection.6.9.1.2}%
\contentsline {subsubsection}{\numberline {6.9.1.3}LogCosh\_plus\_LogMSE()}{40}{subsubsection.6.9.1.3}%
\contentsline {subsubsection}{\numberline {6.9.1.4}LogCosh\_plus\_LogMSE\_plus\_MAE()}{40}{subsubsection.6.9.1.4}%
\contentsline {subsubsection}{\numberline {6.9.1.5}LogCosh\_plus\_MAE()}{41}{subsubsection.6.9.1.5}%
\contentsline {subsubsection}{\numberline {6.9.1.6}LogCosh\_plus\_MSE()}{41}{subsubsection.6.9.1.6}%
\contentsline {subsubsection}{\numberline {6.9.1.7}main()}{41}{subsubsection.6.9.1.7}%
\contentsline {subsubsection}{\numberline {6.9.1.8}make\_variable()}{42}{subsubsection.6.9.1.8}%
\contentsline {subsubsection}{\numberline {6.9.1.9}ModelEvaluation()}{42}{subsubsection.6.9.1.9}%
\contentsline {subsubsection}{\numberline {6.9.1.10}MSE\_plus\_LogMSE()}{42}{subsubsection.6.9.1.10}%
\contentsline {subsubsection}{\numberline {6.9.1.11}MSE\_plus\_MAE()}{42}{subsubsection.6.9.1.11}%
\contentsline {subsubsection}{\numberline {6.9.1.12}plot\_interpol()}{42}{subsubsection.6.9.1.12}%
\contentsline {subsubsection}{\numberline {6.9.1.13}shape()}{43}{subsubsection.6.9.1.13}%
\contentsline {subsection}{\numberline {6.9.2}Variable Documentation}{43}{subsection.6.9.2}%
\contentsline {subsubsection}{\numberline {6.9.2.1}end}{43}{subsubsection.6.9.2.1}%
\contentsline {subsubsection}{\numberline {6.9.2.2}score}{43}{subsubsection.6.9.2.2}%
\contentsline {subsubsection}{\numberline {6.9.2.3}sectionLine}{43}{subsubsection.6.9.2.3}%
\contentsline {subsubsection}{\numberline {6.9.2.4}size\_labels}{43}{subsubsection.6.9.2.4}%
\contentsline {subsubsection}{\numberline {6.9.2.5}size\_predictions}{43}{subsubsection.6.9.2.5}%
\contentsline {subsubsection}{\numberline {6.9.2.6}test\_predictions}{43}{subsubsection.6.9.2.6}%
\contentsline {subsubsection}{\numberline {6.9.2.7}threshold}{44}{subsubsection.6.9.2.7}%
\contentsline {subsubsection}{\numberline {6.9.2.8}xgrid}{44}{subsubsection.6.9.2.8}%
\contentsline {subsubsection}{\numberline {6.9.2.9}y\_test}{44}{subsubsection.6.9.2.9}%
\contentsline {subsubsection}{\numberline {6.9.2.10}ygrid}{44}{subsubsection.6.9.2.10}%
\contentsline {section}{\numberline {6.10}Output Namespace Reference}{44}{section.6.10}%
\contentsline {subsection}{\numberline {6.10.1}Detailed Description}{45}{subsection.6.10.1}%
\contentsline {subsection}{\numberline {6.10.2}Function Documentation}{45}{subsection.6.10.2}%
\contentsline {subsubsection}{\numberline {6.10.2.1}calcDuration()}{45}{subsubsection.6.10.2.1}%
\contentsline {subsubsection}{\numberline {6.10.2.2}drawLayerBox()}{46}{subsubsection.6.10.2.2}%
\contentsline {subsubsection}{\numberline {6.10.2.3}finalize()}{46}{subsubsection.6.10.2.3}%
\contentsline {subsubsection}{\numberline {6.10.2.4}formatHeader()}{47}{subsubsection.6.10.2.4}%
\contentsline {subsubsection}{\numberline {6.10.2.5}formatOutput()}{47}{subsubsection.6.10.2.5}%
\contentsline {subsubsection}{\numberline {6.10.2.6}formatSectionTitle()}{48}{subsubsection.6.10.2.6}%
\contentsline {subsubsection}{\numberline {6.10.2.7}getLogo()}{49}{subsubsection.6.10.2.7}%
\contentsline {subsubsection}{\numberline {6.10.2.8}set\_pathToSource()}{49}{subsubsection.6.10.2.8}%
\contentsline {subsubsection}{\numberline {6.10.2.9}writeDataSummary()}{49}{subsubsection.6.10.2.9}%
\contentsline {subsubsection}{\numberline {6.10.2.10}writeEvalSummary()}{50}{subsubsection.6.10.2.10}%
\contentsline {subsubsection}{\numberline {6.10.2.11}writeModelSummary()}{50}{subsubsection.6.10.2.11}%
\contentsline {subsection}{\numberline {6.10.3}Variable Documentation}{50}{subsection.6.10.3}%
\contentsline {subsubsection}{\numberline {6.10.3.1}boxLine}{51}{subsubsection.6.10.3.1}%
\contentsline {subsubsection}{\numberline {6.10.3.2}durationDataLoading}{51}{subsubsection.6.10.3.2}%
\contentsline {subsubsection}{\numberline {6.10.3.3}durationTotal}{51}{subsubsection.6.10.3.3}%
\contentsline {subsubsection}{\numberline {6.10.3.4}durationTraining}{51}{subsubsection.6.10.3.4}%
\contentsline {subsubsection}{\numberline {6.10.3.5}durationVisualization}{51}{subsubsection.6.10.3.5}%
\contentsline {subsubsection}{\numberline {6.10.3.6}endTime}{51}{subsubsection.6.10.3.6}%
\contentsline {subsubsection}{\numberline {6.10.3.7}headingLine}{51}{subsubsection.6.10.3.7}%
\contentsline {subsubsection}{\numberline {6.10.3.8}headLine}{52}{subsubsection.6.10.3.8}%
\contentsline {subsubsection}{\numberline {6.10.3.9}outFilename}{52}{subsubsection.6.10.3.9}%
\contentsline {subsubsection}{\numberline {6.10.3.10}pathToSource}{52}{subsubsection.6.10.3.10}%
\contentsline {subsubsection}{\numberline {6.10.3.11}postLoadTime}{52}{subsubsection.6.10.3.11}%
\contentsline {subsubsection}{\numberline {6.10.3.12}postTrainTime}{52}{subsubsection.6.10.3.12}%
\contentsline {subsubsection}{\numberline {6.10.3.13}sectionLine}{52}{subsubsection.6.10.3.13}%
\contentsline {subsubsection}{\numberline {6.10.3.14}startTime}{52}{subsubsection.6.10.3.14}%
\contentsline {subsubsection}{\numberline {6.10.3.15}timesCalc}{53}{subsubsection.6.10.3.15}%
\contentsline {subsubsection}{\numberline {6.10.3.16}wHeadLeft}{53}{subsubsection.6.10.3.16}%
\contentsline {subsubsection}{\numberline {6.10.3.17}wHeadRight}{53}{subsubsection.6.10.3.17}%
\contentsline {subsubsection}{\numberline {6.10.3.18}wLayerBox}{53}{subsubsection.6.10.3.18}%
\contentsline {subsubsection}{\numberline {6.10.3.19}wLeftCol}{53}{subsubsection.6.10.3.19}%
\contentsline {subsubsection}{\numberline {6.10.3.20}wRightCol}{53}{subsubsection.6.10.3.20}%
\contentsline {subsubsection}{\numberline {6.10.3.21}wSectionLine}{53}{subsubsection.6.10.3.21}%
\contentsline {section}{\numberline {6.11}Plot\discretionary {\mbox {\scriptsize $\hookleftarrow $}}{}{}Interactive\discretionary {\mbox {\scriptsize $\hookleftarrow $}}{}{}Hyper\discretionary {\mbox {\scriptsize $\hookleftarrow $}}{}{}Parameter\discretionary {\mbox {\scriptsize $\hookleftarrow $}}{}{}Opt Namespace Reference}{53}{section.6.11}%
\contentsline {subsection}{\numberline {6.11.1}Function Documentation}{54}{subsection.6.11.1}%
\contentsline {subsubsection}{\numberline {6.11.1.1}realtime\_learning\_curves()}{54}{subsubsection.6.11.1.1}%
\contentsline {subsection}{\numberline {6.11.2}Variable Documentation}{54}{subsection.6.11.2}%
\contentsline {subsubsection}{\numberline {6.11.2.1}all\_runs}{54}{subsubsection.6.11.2.1}%
\contentsline {subsubsection}{\numberline {6.11.2.2}id2conf}{54}{subsubsection.6.11.2.2}%
\contentsline {subsubsection}{\numberline {6.11.2.3}lcs}{54}{subsubsection.6.11.2.3}%
\contentsline {subsubsection}{\numberline {6.11.2.4}result}{55}{subsubsection.6.11.2.4}%
\contentsline {subsubsection}{\numberline {6.11.2.5}tool\_tip\_strings}{55}{subsubsection.6.11.2.5}%
\contentsline {section}{\numberline {6.12}Regression\discretionary {\mbox {\scriptsize $\hookleftarrow $}}{}{}\_\discretionary {\mbox {\scriptsize $\hookleftarrow $}}{}{}\discretionary {\mbox {\scriptsize $\hookleftarrow $}}{}{}Loop\discretionary {\mbox {\scriptsize $\hookleftarrow $}}{}{}\_\discretionary {\mbox {\scriptsize $\hookleftarrow $}}{}{}\discretionary {\mbox {\scriptsize $\hookleftarrow $}}{}{}Noise Namespace Reference}{55}{section.6.12}%
\contentsline {subsection}{\numberline {6.12.1}Function Documentation}{56}{subsection.6.12.1}%
\contentsline {subsubsection}{\numberline {6.12.1.1}SpaceString()}{56}{subsubsection.6.12.1.1}%
\contentsline {subsection}{\numberline {6.12.2}Variable Documentation}{56}{subsection.6.12.2}%
\contentsline {subsubsection}{\numberline {6.12.2.1}ax}{56}{subsubsection.6.12.2.1}%
\contentsline {subsubsection}{\numberline {6.12.2.2}best\_val\_loss\_index}{56}{subsubsection.6.12.2.2}%
\contentsline {subsubsection}{\numberline {6.12.2.3}count}{56}{subsubsection.6.12.2.3}%
\contentsline {subsubsection}{\numberline {6.12.2.4}DataString}{56}{subsubsection.6.12.2.4}%
\contentsline {subsubsection}{\numberline {6.12.2.5}DetectionNoise}{56}{subsubsection.6.12.2.5}%
\contentsline {subsubsection}{\numberline {6.12.2.6}DetectionNoiseOnLabels}{57}{subsubsection.6.12.2.6}%
\contentsline {subsubsection}{\numberline {6.12.2.7}DetectionNoiseStrength}{57}{subsubsection.6.12.2.7}%
\contentsline {subsubsection}{\numberline {6.12.2.8}DetectionNoiseWidth}{57}{subsubsection.6.12.2.8}%
\contentsline {subsubsection}{\numberline {6.12.2.9}fig}{57}{subsubsection.6.12.2.9}%
\contentsline {subsubsection}{\numberline {6.12.2.10}fname}{57}{subsubsection.6.12.2.10}%
\contentsline {subsubsection}{\numberline {6.12.2.11}ImageNoise}{57}{subsubsection.6.12.2.11}%
\contentsline {subsubsection}{\numberline {6.12.2.12}ImageNoiseOnLabels}{57}{subsubsection.6.12.2.12}%
\contentsline {subsubsection}{\numberline {6.12.2.13}ImageNoiseStrength}{57}{subsubsection.6.12.2.13}%
\contentsline {subsubsection}{\numberline {6.12.2.14}LabelString}{58}{subsubsection.6.12.2.14}%
\contentsline {subsubsection}{\numberline {6.12.2.15}Learn}{58}{subsubsection.6.12.2.15}%
\contentsline {subsubsection}{\numberline {6.12.2.16}legend}{58}{subsubsection.6.12.2.16}%
\contentsline {subsubsection}{\numberline {6.12.2.17}loc}{58}{subsubsection.6.12.2.17}%
\contentsline {subsubsection}{\numberline {6.12.2.18}Loss}{58}{subsubsection.6.12.2.18}%
\contentsline {subsubsection}{\numberline {6.12.2.19}momData}{58}{subsubsection.6.12.2.19}%
\contentsline {subsubsection}{\numberline {6.12.2.20}momLabels}{58}{subsubsection.6.12.2.20}%
\contentsline {subsubsection}{\numberline {6.12.2.21}NShots}{58}{subsubsection.6.12.2.21}%
\contentsline {subsubsection}{\numberline {6.12.2.22}NShotsPerSample}{59}{subsubsection.6.12.2.22}%
\contentsline {subsubsection}{\numberline {6.12.2.23}score}{59}{subsubsection.6.12.2.23}%
\contentsline {subsubsection}{\numberline {6.12.2.24}scores}{59}{subsubsection.6.12.2.24}%
\contentsline {subsubsection}{\numberline {6.12.2.25}test\_generator}{59}{subsubsection.6.12.2.25}%
\contentsline {subsubsection}{\numberline {6.12.2.26}test\_predictions}{59}{subsubsection.6.12.2.26}%
\contentsline {subsubsection}{\numberline {6.12.2.27}training\_generator}{59}{subsubsection.6.12.2.27}%
\contentsline {subsubsection}{\numberline {6.12.2.28}validation\_generator}{59}{subsubsection.6.12.2.28}%
\contentsline {subsubsection}{\numberline {6.12.2.29}X\_test}{59}{subsubsection.6.12.2.29}%
\contentsline {subsubsection}{\numberline {6.12.2.30}X\_train}{60}{subsubsection.6.12.2.30}%
\contentsline {subsubsection}{\numberline {6.12.2.31}X\_val}{60}{subsubsection.6.12.2.31}%
\contentsline {subsubsection}{\numberline {6.12.2.32}xlabel}{60}{subsubsection.6.12.2.32}%
\contentsline {subsubsection}{\numberline {6.12.2.33}y\_test}{60}{subsubsection.6.12.2.33}%
\contentsline {subsubsection}{\numberline {6.12.2.34}y\_train}{60}{subsubsection.6.12.2.34}%
\contentsline {subsubsection}{\numberline {6.12.2.35}y\_val}{60}{subsubsection.6.12.2.35}%
\contentsline {subsubsection}{\numberline {6.12.2.36}ylabel}{60}{subsubsection.6.12.2.36}%
\contentsline {section}{\numberline {6.13}Regression\discretionary {\mbox {\scriptsize $\hookleftarrow $}}{}{}\_\discretionary {\mbox {\scriptsize $\hookleftarrow $}}{}{}\discretionary {\mbox {\scriptsize $\hookleftarrow $}}{}{}Loop\discretionary {\mbox {\scriptsize $\hookleftarrow $}}{}{}\_\discretionary {\mbox {\scriptsize $\hookleftarrow $}}{}{}\discretionary {\mbox {\scriptsize $\hookleftarrow $}}{}{}N\discretionary {\mbox {\scriptsize $\hookleftarrow $}}{}{}Shots Namespace Reference}{60}{section.6.13}%
\contentsline {subsection}{\numberline {6.13.1}Function Documentation}{61}{subsection.6.13.1}%
\contentsline {subsubsection}{\numberline {6.13.1.1}SpaceString()}{61}{subsubsection.6.13.1.1}%
\contentsline {subsection}{\numberline {6.13.2}Variable Documentation}{61}{subsection.6.13.2}%
\contentsline {subsubsection}{\numberline {6.13.2.1}ax}{62}{subsubsection.6.13.2.1}%
\contentsline {subsubsection}{\numberline {6.13.2.2}best\_val\_loss\_index}{62}{subsubsection.6.13.2.2}%
\contentsline {subsubsection}{\numberline {6.13.2.3}count}{62}{subsubsection.6.13.2.3}%
\contentsline {subsubsection}{\numberline {6.13.2.4}DataString}{62}{subsubsection.6.13.2.4}%
\contentsline {subsubsection}{\numberline {6.13.2.5}fig}{62}{subsubsection.6.13.2.5}%
\contentsline {subsubsection}{\numberline {6.13.2.6}fname}{62}{subsubsection.6.13.2.6}%
\contentsline {subsubsection}{\numberline {6.13.2.7}LabelString}{62}{subsubsection.6.13.2.7}%
\contentsline {subsubsection}{\numberline {6.13.2.8}Learn}{63}{subsubsection.6.13.2.8}%
\contentsline {subsubsection}{\numberline {6.13.2.9}legend}{63}{subsubsection.6.13.2.9}%
\contentsline {subsubsection}{\numberline {6.13.2.10}loc}{63}{subsubsection.6.13.2.10}%
\contentsline {subsubsection}{\numberline {6.13.2.11}Loss}{63}{subsubsection.6.13.2.11}%
\contentsline {subsubsection}{\numberline {6.13.2.12}lower}{63}{subsubsection.6.13.2.12}%
\contentsline {subsubsection}{\numberline {6.13.2.13}momData}{63}{subsubsection.6.13.2.13}%
\contentsline {subsubsection}{\numberline {6.13.2.14}momLabels}{63}{subsubsection.6.13.2.14}%
\contentsline {subsubsection}{\numberline {6.13.2.15}NShots}{63}{subsubsection.6.13.2.15}%
\contentsline {subsubsection}{\numberline {6.13.2.16}NShotsPerSample}{64}{subsubsection.6.13.2.16}%
\contentsline {subsubsection}{\numberline {6.13.2.17}score}{64}{subsubsection.6.13.2.17}%
\contentsline {subsubsection}{\numberline {6.13.2.18}scores}{64}{subsubsection.6.13.2.18}%
\contentsline {subsubsection}{\numberline {6.13.2.19}task}{64}{subsubsection.6.13.2.19}%
\contentsline {subsubsection}{\numberline {6.13.2.20}test\_generator}{64}{subsubsection.6.13.2.20}%
\contentsline {subsubsection}{\numberline {6.13.2.21}test\_predictions}{64}{subsubsection.6.13.2.21}%
\contentsline {subsubsection}{\numberline {6.13.2.22}training\_generator}{64}{subsubsection.6.13.2.22}%
\contentsline {subsubsection}{\numberline {6.13.2.23}upper}{64}{subsubsection.6.13.2.23}%
\contentsline {subsubsection}{\numberline {6.13.2.24}validation\_generator}{65}{subsubsection.6.13.2.24}%
\contentsline {subsubsection}{\numberline {6.13.2.25}X\_test}{65}{subsubsection.6.13.2.25}%
\contentsline {subsubsection}{\numberline {6.13.2.26}X\_train}{65}{subsubsection.6.13.2.26}%
\contentsline {subsubsection}{\numberline {6.13.2.27}X\_val}{65}{subsubsection.6.13.2.27}%
\contentsline {subsubsection}{\numberline {6.13.2.28}xlabel}{65}{subsubsection.6.13.2.28}%
\contentsline {subsubsection}{\numberline {6.13.2.29}y\_test}{65}{subsubsection.6.13.2.29}%
\contentsline {subsubsection}{\numberline {6.13.2.30}y\_train}{65}{subsubsection.6.13.2.30}%
\contentsline {subsubsection}{\numberline {6.13.2.31}y\_val}{65}{subsubsection.6.13.2.31}%
\contentsline {subsubsection}{\numberline {6.13.2.32}ylabel}{66}{subsubsection.6.13.2.32}%
\contentsline {section}{\numberline {6.14}rel\discretionary {\mbox {\scriptsize $\hookleftarrow $}}{}{}\_\discretionary {\mbox {\scriptsize $\hookleftarrow $}}{}{}phase\discretionary {\mbox {\scriptsize $\hookleftarrow $}}{}{}\_\discretionary {\mbox {\scriptsize $\hookleftarrow $}}{}{}package Namespace Reference}{66}{section.6.14}%
\contentsline {subsection}{\numberline {6.14.1}Function Documentation}{66}{subsection.6.14.1}%
\contentsline {subsubsection}{\numberline {6.14.1.1}circular\_mean()}{66}{subsubsection.6.14.1.1}%
\contentsline {subsubsection}{\numberline {6.14.1.2}circular\_var()}{66}{subsubsection.6.14.1.2}%
\contentsline {subsubsection}{\numberline {6.14.1.3}extract\_info()}{67}{subsubsection.6.14.1.3}%
\contentsline {subsubsection}{\numberline {6.14.1.4}fit\_plot()}{67}{subsubsection.6.14.1.4}%
\contentsline {subsubsection}{\numberline {6.14.1.5}gauss()}{67}{subsubsection.6.14.1.5}%
\contentsline {subsubsection}{\numberline {6.14.1.6}initial\_fit()}{67}{subsubsection.6.14.1.6}%
\contentsline {subsubsection}{\numberline {6.14.1.7}plot\_phase\_histogram()}{68}{subsubsection.6.14.1.7}%
\contentsline {subsubsection}{\numberline {6.14.1.8}Pmodel()}{68}{subsubsection.6.14.1.8}%
\contentsline {subsubsection}{\numberline {6.14.1.9}scatterplot()}{68}{subsubsection.6.14.1.9}%
\contentsline {section}{\numberline {6.15}Runtime\discretionary {\mbox {\scriptsize $\hookleftarrow $}}{}{}\_\discretionary {\mbox {\scriptsize $\hookleftarrow $}}{}{}check Namespace Reference}{69}{section.6.15}%
\contentsline {subsection}{\numberline {6.15.1}Function Documentation}{69}{subsection.6.15.1}%
\contentsline {subsubsection}{\numberline {6.15.1.1}runtime\_checks()}{69}{subsubsection.6.15.1.1}%
\contentsline {subsection}{\numberline {6.15.2}Variable Documentation}{69}{subsection.6.15.2}%
\contentsline {subsubsection}{\numberline {6.15.2.1}end}{69}{subsubsection.6.15.2.1}%
\contentsline {subsubsection}{\numberline {6.15.2.2}IDs\_tot}{70}{subsubsection.6.15.2.2}%
\contentsline {subsubsection}{\numberline {6.15.2.3}matplotlibVERSION}{70}{subsubsection.6.15.2.3}%
\contentsline {subsubsection}{\numberline {6.15.2.4}NTestDatasets}{70}{subsubsection.6.15.2.4}%
\contentsline {subsubsection}{\numberline {6.15.2.5}NTrainDatasets}{70}{subsubsection.6.15.2.5}%
\contentsline {subsubsection}{\numberline {6.15.2.6}numpyVERSION}{71}{subsubsection.6.15.2.6}%
\contentsline {subsubsection}{\numberline {6.15.2.7}NValidationDatasets}{71}{subsubsection.6.15.2.7}%
\contentsline {subsubsection}{\numberline {6.15.2.8}pythonVERSION}{71}{subsubsection.6.15.2.8}%
\contentsline {subsubsection}{\numberline {6.15.2.9}scipyVERSION}{71}{subsubsection.6.15.2.9}%
\contentsline {subsubsection}{\numberline {6.15.2.10}sectionLine}{71}{subsubsection.6.15.2.10}%
\contentsline {subsubsection}{\numberline {6.15.2.11}tfVERSION}{71}{subsubsection.6.15.2.11}%
\contentsline {section}{\numberline {6.16}test\discretionary {\mbox {\scriptsize $\hookleftarrow $}}{}{}\_\discretionary {\mbox {\scriptsize $\hookleftarrow $}}{}{}interpolate\discretionary {\mbox {\scriptsize $\hookleftarrow $}}{}{}\_\discretionary {\mbox {\scriptsize $\hookleftarrow $}}{}{}spline Namespace Reference}{71}{section.6.16}%
\contentsline {subsection}{\numberline {6.16.1}Function Documentation}{72}{subsection.6.16.1}%
\contentsline {subsubsection}{\numberline {6.16.1.1}ApplyInterpolation()}{72}{subsubsection.6.16.1.1}%
\contentsline {subsubsection}{\numberline {6.16.1.2}assign\_variable\_slice()}{72}{subsubsection.6.16.1.2}%
\contentsline {subsubsection}{\numberline {6.16.1.3}make\_variable()}{73}{subsubsection.6.16.1.3}%
\contentsline {section}{\numberline {6.17}U\discretionary {\mbox {\scriptsize $\hookleftarrow $}}{}{}N\discretionary {\mbox {\scriptsize $\hookleftarrow $}}{}{}I\discretionary {\mbox {\scriptsize $\hookleftarrow $}}{}{}Q\discretionary {\mbox {\scriptsize $\hookleftarrow $}}{}{}O\discretionary {\mbox {\scriptsize $\hookleftarrow $}}{}{}RN Namespace Reference}{73}{section.6.17}%
\contentsline {subsection}{\numberline {6.17.1}Variable Documentation}{73}{subsection.6.17.1}%
\contentsline {subsubsection}{\numberline {6.17.1.1}durationDataLoading}{74}{subsubsection.6.17.1.1}%
\contentsline {subsubsection}{\numberline {6.17.1.2}durationTotal}{74}{subsubsection.6.17.1.2}%
\contentsline {subsubsection}{\numberline {6.17.1.3}durationTraining}{74}{subsubsection.6.17.1.3}%
\contentsline {subsubsection}{\numberline {6.17.1.4}durationVisualization}{74}{subsubsection.6.17.1.4}%
\contentsline {subsubsection}{\numberline {6.17.1.5}endTime}{74}{subsubsection.6.17.1.5}%
\contentsline {subsubsection}{\numberline {6.17.1.6}pathToSource}{74}{subsubsection.6.17.1.6}%
\contentsline {subsubsection}{\numberline {6.17.1.7}postLoadTime}{74}{subsubsection.6.17.1.7}%
\contentsline {subsubsection}{\numberline {6.17.1.8}postTrainTime}{75}{subsubsection.6.17.1.8}%
\contentsline {subsubsection}{\numberline {6.17.1.9}score}{75}{subsubsection.6.17.1.9}%
\contentsline {subsubsection}{\numberline {6.17.1.10}startTime}{75}{subsubsection.6.17.1.10}%
\contentsline {subsubsection}{\numberline {6.17.1.11}test\_generator}{75}{subsubsection.6.17.1.11}%
\contentsline {subsubsection}{\numberline {6.17.1.12}test\_predictions}{75}{subsubsection.6.17.1.12}%
\contentsline {subsubsection}{\numberline {6.17.1.13}training\_generator}{75}{subsubsection.6.17.1.13}%
\contentsline {subsubsection}{\numberline {6.17.1.14}validation\_generator}{76}{subsubsection.6.17.1.14}%
\contentsline {subsubsection}{\numberline {6.17.1.15}X\_test}{76}{subsubsection.6.17.1.15}%
\contentsline {subsubsection}{\numberline {6.17.1.16}X\_train}{76}{subsubsection.6.17.1.16}%
\contentsline {subsubsection}{\numberline {6.17.1.17}X\_val}{76}{subsubsection.6.17.1.17}%
\contentsline {subsubsection}{\numberline {6.17.1.18}y\_test}{76}{subsubsection.6.17.1.18}%
\contentsline {subsubsection}{\numberline {6.17.1.19}y\_train}{76}{subsubsection.6.17.1.19}%
\contentsline {subsubsection}{\numberline {6.17.1.20}y\_val}{76}{subsubsection.6.17.1.20}%
\contentsline {section}{\numberline {6.18}Visualization Namespace Reference}{77}{section.6.18}%
\contentsline {subsection}{\numberline {6.18.1}Detailed Description}{78}{subsection.6.18.1}%
\contentsline {subsection}{\numberline {6.18.2}Function Documentation}{78}{subsection.6.18.2}%
\contentsline {subsubsection}{\numberline {6.18.2.1}AddKeysToPlot()}{78}{subsubsection.6.18.2.1}%
\contentsline {subsubsection}{\numberline {6.18.2.2}folder\_creation()}{78}{subsubsection.6.18.2.2}%
\contentsline {subsubsection}{\numberline {6.18.2.3}get\_labels()}{79}{subsubsection.6.18.2.3}%
\contentsline {subsubsection}{\numberline {6.18.2.4}grid\_display()}{79}{subsubsection.6.18.2.4}%
\contentsline {subsubsection}{\numberline {6.18.2.5}main()}{79}{subsubsection.6.18.2.5}%
\contentsline {subsubsection}{\numberline {6.18.2.6}plot\_history()}{80}{subsubsection.6.18.2.6}%
\contentsline {subsubsection}{\numberline {6.18.2.7}plot\_predictions()}{81}{subsubsection.6.18.2.7}%
\contentsline {subsubsection}{\numberline {6.18.2.8}result\_averaging()}{82}{subsubsection.6.18.2.8}%
\contentsline {subsubsection}{\numberline {6.18.2.9}SaveHistoryToFile()}{82}{subsubsection.6.18.2.9}%
\contentsline {subparagraph}{\numberline {6.18.2.9.0.1}autotoc\discretionary {\mbox {\scriptsize $\hookleftarrow $}}{}{}\_\discretionary {\mbox {\scriptsize $\hookleftarrow $}}{}{}md7}{83}{subparagraph.6.18.2.9.0.1}%
\contentsline {subsection}{\numberline {6.18.3}Variable Documentation}{83}{subsection.6.18.3}%
\contentsline {subsubsection}{\numberline {6.18.3.1}adjustable}{83}{subsubsection.6.18.3.1}%
\contentsline {subsubsection}{\numberline {6.18.3.2}aspect}{83}{subsubsection.6.18.3.2}%
\contentsline {subsubsection}{\numberline {6.18.3.3}axes}{83}{subsubsection.6.18.3.3}%
\contentsline {subsubsection}{\numberline {6.18.3.4}bbox\_inches}{83}{subsubsection.6.18.3.4}%
\contentsline {subsubsection}{\numberline {6.18.3.5}bottom}{83}{subsubsection.6.18.3.5}%
\contentsline {subsubsection}{\numberline {6.18.3.6}c\_max}{84}{subsubsection.6.18.3.6}%
\contentsline {subsubsection}{\numberline {6.18.3.7}c\_min}{84}{subsubsection.6.18.3.7}%
\contentsline {subsubsection}{\numberline {6.18.3.8}cax}{84}{subsubsection.6.18.3.8}%
\contentsline {subsubsection}{\numberline {6.18.3.9}cmap}{84}{subsubsection.6.18.3.9}%
\contentsline {subsubsection}{\numberline {6.18.3.10}corrplot}{84}{subsubsection.6.18.3.10}%
\contentsline {subsubsection}{\numberline {6.18.3.11}divider}{84}{subsubsection.6.18.3.11}%
\contentsline {subsubsection}{\numberline {6.18.3.12}dpi}{84}{subsubsection.6.18.3.12}%
\contentsline {subsubsection}{\numberline {6.18.3.13}fig}{84}{subsubsection.6.18.3.13}%
\contentsline {subsubsection}{\numberline {6.18.3.14}Grid}{85}{subsubsection.6.18.3.14}%
\contentsline {subsubsection}{\numberline {6.18.3.15}hspace}{85}{subsubsection.6.18.3.15}%
\contentsline {subsubsection}{\numberline {6.18.3.16}im}{85}{subsubsection.6.18.3.16}%
\contentsline {subsubsection}{\numberline {6.18.3.17}indices}{85}{subsubsection.6.18.3.17}%
\contentsline {subsubsection}{\numberline {6.18.3.18}j}{85}{subsubsection.6.18.3.18}%
\contentsline {subsubsection}{\numberline {6.18.3.19}left}{85}{subsubsection.6.18.3.19}%
\contentsline {subsubsection}{\numberline {6.18.3.20}ncols}{85}{subsubsection.6.18.3.20}%
\contentsline {subsubsection}{\numberline {6.18.3.21}None}{86}{subsubsection.6.18.3.21}%
\contentsline {subsubsection}{\numberline {6.18.3.22}NSamples}{86}{subsubsection.6.18.3.22}%
\contentsline {subsubsection}{\numberline {6.18.3.23}pathToSource}{86}{subsubsection.6.18.3.23}%
\contentsline {subsubsection}{\numberline {6.18.3.24}right}{86}{subsubsection.6.18.3.24}%
\contentsline {subsubsection}{\numberline {6.18.3.25}sharex}{86}{subsubsection.6.18.3.25}%
\contentsline {subsubsection}{\numberline {6.18.3.26}sharey}{86}{subsubsection.6.18.3.26}%
\contentsline {subsubsection}{\numberline {6.18.3.27}TestingFraction}{86}{subsubsection.6.18.3.27}%
\contentsline {subsubsection}{\numberline {6.18.3.28}threshold}{87}{subsubsection.6.18.3.28}%
\contentsline {subsubsection}{\numberline {6.18.3.29}titles}{87}{subsubsection.6.18.3.29}%
\contentsline {subsubsection}{\numberline {6.18.3.30}top}{87}{subsubsection.6.18.3.30}%
\contentsline {subsubsection}{\numberline {6.18.3.31}True}{87}{subsubsection.6.18.3.31}%
\contentsline {subsubsection}{\numberline {6.18.3.32}VizGrid}{87}{subsubsection.6.18.3.32}%
\contentsline {subsubsection}{\numberline {6.18.3.33}wspace}{87}{subsubsection.6.18.3.33}%
\contentsline {section}{\numberline {6.19}Visualization\discretionary {\mbox {\scriptsize $\hookleftarrow $}}{}{}New Namespace Reference}{87}{section.6.19}%
\contentsline {subsection}{\numberline {6.19.1}Detailed Description}{88}{subsection.6.19.1}%
\contentsline {subsection}{\numberline {6.19.2}Function Documentation}{89}{subsection.6.19.2}%
\contentsline {subsubsection}{\numberline {6.19.2.1}AddKeysToPlot()}{89}{subsubsection.6.19.2.1}%
\contentsline {subsubsection}{\numberline {6.19.2.2}folder\_creation()}{89}{subsubsection.6.19.2.2}%
\contentsline {subsubsection}{\numberline {6.19.2.3}get\_labels()}{90}{subsubsection.6.19.2.3}%
\contentsline {subsubsection}{\numberline {6.19.2.4}grid\_display()}{90}{subsubsection.6.19.2.4}%
\contentsline {subsubsection}{\numberline {6.19.2.5}main()}{90}{subsubsection.6.19.2.5}%
\contentsline {subsubsection}{\numberline {6.19.2.6}plot\_history()}{91}{subsubsection.6.19.2.6}%
\contentsline {subsubsection}{\numberline {6.19.2.7}plot\_predictions()}{92}{subsubsection.6.19.2.7}%
\contentsline {subsubsection}{\numberline {6.19.2.8}result\_averaging()}{93}{subsubsection.6.19.2.8}%
\contentsline {subsubsection}{\numberline {6.19.2.9}SaveHistoryToFile()}{93}{subsubsection.6.19.2.9}%
\contentsline {subparagraph}{\numberline {6.19.2.9.0.1}autotoc\discretionary {\mbox {\scriptsize $\hookleftarrow $}}{}{}\_\discretionary {\mbox {\scriptsize $\hookleftarrow $}}{}{}md8}{94}{subparagraph.6.19.2.9.0.1}%
\contentsline {subsection}{\numberline {6.19.3}Variable Documentation}{94}{subsection.6.19.3}%
\contentsline {subsubsection}{\numberline {6.19.3.1}accuraciesPath}{94}{subsubsection.6.19.3.1}%
\contentsline {subsubsection}{\numberline {6.19.3.2}adjustable}{94}{subsubsection.6.19.3.2}%
\contentsline {subsubsection}{\numberline {6.19.3.3}aspect}{94}{subsubsection.6.19.3.3}%
\contentsline {subsubsection}{\numberline {6.19.3.4}axes}{94}{subsubsection.6.19.3.4}%
\contentsline {subsubsection}{\numberline {6.19.3.5}bbox\_inches}{94}{subsubsection.6.19.3.5}%
\contentsline {subsubsection}{\numberline {6.19.3.6}bottom}{95}{subsubsection.6.19.3.6}%
\contentsline {subsubsection}{\numberline {6.19.3.7}c\_max}{95}{subsubsection.6.19.3.7}%
\contentsline {subsubsection}{\numberline {6.19.3.8}c\_min}{95}{subsubsection.6.19.3.8}%
\contentsline {subsubsection}{\numberline {6.19.3.9}cax}{95}{subsubsection.6.19.3.9}%
\contentsline {subsubsection}{\numberline {6.19.3.10}cmap}{95}{subsubsection.6.19.3.10}%
\contentsline {subsubsection}{\numberline {6.19.3.11}corrplot}{95}{subsubsection.6.19.3.11}%
\contentsline {subsubsection}{\numberline {6.19.3.12}divider}{95}{subsubsection.6.19.3.12}%
\contentsline {subsubsection}{\numberline {6.19.3.13}dpi}{95}{subsubsection.6.19.3.13}%
\contentsline {subsubsection}{\numberline {6.19.3.14}errorsPath}{96}{subsubsection.6.19.3.14}%
\contentsline {subsubsection}{\numberline {6.19.3.15}fig}{96}{subsubsection.6.19.3.15}%
\contentsline {subsubsection}{\numberline {6.19.3.16}Grid}{96}{subsubsection.6.19.3.16}%
\contentsline {subsubsection}{\numberline {6.19.3.17}hspace}{96}{subsubsection.6.19.3.17}%
\contentsline {subsubsection}{\numberline {6.19.3.18}im}{96}{subsubsection.6.19.3.18}%
\contentsline {subsubsection}{\numberline {6.19.3.19}indices}{96}{subsubsection.6.19.3.19}%
\contentsline {subsubsection}{\numberline {6.19.3.20}j}{96}{subsubsection.6.19.3.20}%
\contentsline {subsubsection}{\numberline {6.19.3.21}left}{97}{subsubsection.6.19.3.21}%
\contentsline {subsubsection}{\numberline {6.19.3.22}lossesPath}{97}{subsubsection.6.19.3.22}%
\contentsline {subsubsection}{\numberline {6.19.3.23}ncols}{97}{subsubsection.6.19.3.23}%
\contentsline {subsubsection}{\numberline {6.19.3.24}None}{97}{subsubsection.6.19.3.24}%
\contentsline {subsubsection}{\numberline {6.19.3.25}NSamples}{97}{subsubsection.6.19.3.25}%
\contentsline {subsubsection}{\numberline {6.19.3.26}plotFolderPath}{97}{subsubsection.6.19.3.26}%
\contentsline {subsubsection}{\numberline {6.19.3.27}right}{97}{subsubsection.6.19.3.27}%
\contentsline {subsubsection}{\numberline {6.19.3.28}runName}{97}{subsubsection.6.19.3.28}%
\contentsline {subsubsection}{\numberline {6.19.3.29}sharex}{98}{subsubsection.6.19.3.29}%
\contentsline {subsubsection}{\numberline {6.19.3.30}sharey}{98}{subsubsection.6.19.3.30}%
\contentsline {subsubsection}{\numberline {6.19.3.31}TestingFraction}{98}{subsubsection.6.19.3.31}%
\contentsline {subsubsection}{\numberline {6.19.3.32}threshold}{98}{subsubsection.6.19.3.32}%
\contentsline {subsubsection}{\numberline {6.19.3.33}timestamp}{98}{subsubsection.6.19.3.33}%
\contentsline {subsubsection}{\numberline {6.19.3.34}titles}{98}{subsubsection.6.19.3.34}%
\contentsline {subsubsection}{\numberline {6.19.3.35}top}{98}{subsubsection.6.19.3.35}%
\contentsline {subsubsection}{\numberline {6.19.3.36}True}{98}{subsubsection.6.19.3.36}%
\contentsline {subsubsection}{\numberline {6.19.3.37}VizGrid}{98}{subsubsection.6.19.3.37}%
\contentsline {subsubsection}{\numberline {6.19.3.38}wspace}{98}{subsubsection.6.19.3.38}%
\contentsline {chapter}{\numberline {7}Class Documentation}{99}{chapter.7}%
\contentsline {section}{\numberline {7.1}Model\discretionary {\mbox {\scriptsize $\hookleftarrow $}}{}{}Training\discretionary {\mbox {\scriptsize $\hookleftarrow $}}{}{}And\discretionary {\mbox {\scriptsize $\hookleftarrow $}}{}{}Validation.\discretionary {\mbox {\scriptsize $\hookleftarrow $}}{}{}Custom\discretionary {\mbox {\scriptsize $\hookleftarrow $}}{}{}Callback Class Reference}{99}{section.7.1}%
\contentsline {subsection}{\numberline {7.1.1}Member Function Documentation}{100}{subsection.7.1.1}%
\contentsline {subsubsection}{\numberline {7.1.1.1}on\_train\_batch\_begin()}{100}{subsubsection.7.1.1.1}%
\contentsline {section}{\numberline {7.2}Data\discretionary {\mbox {\scriptsize $\hookleftarrow $}}{}{}Generator.\discretionary {\mbox {\scriptsize $\hookleftarrow $}}{}{}Data\discretionary {\mbox {\scriptsize $\hookleftarrow $}}{}{}Generator Class Reference}{100}{section.7.2}%
\contentsline {subsection}{\numberline {7.2.1}Detailed Description}{101}{subsection.7.2.1}%
\contentsline {subsection}{\numberline {7.2.2}Constructor \& Destructor Documentation}{101}{subsection.7.2.2}%
\contentsline {subsubsection}{\numberline {7.2.2.1}\_\_init\_\_()}{101}{subsubsection.7.2.2.1}%
\contentsline {subsection}{\numberline {7.2.3}Member Function Documentation}{101}{subsection.7.2.3}%
\contentsline {subsubsection}{\numberline {7.2.3.1}\_\_data\_generation()}{102}{subsubsection.7.2.3.1}%
\contentsline {subsubsection}{\numberline {7.2.3.2}\_\_getitem\_\_()}{102}{subsubsection.7.2.3.2}%
\contentsline {subsubsection}{\numberline {7.2.3.3}\_\_len\_\_()}{103}{subsubsection.7.2.3.3}%
\contentsline {subsubsection}{\numberline {7.2.3.4}on\_epoch\_end()}{103}{subsubsection.7.2.3.4}%
\contentsline {subsection}{\numberline {7.2.4}Member Data Documentation}{103}{subsection.7.2.4}%
\contentsline {subsubsection}{\numberline {7.2.4.1}batch\_size}{103}{subsubsection.7.2.4.1}%
\contentsline {subsubsection}{\numberline {7.2.4.2}indexes}{103}{subsubsection.7.2.4.2}%
\contentsline {subsubsection}{\numberline {7.2.4.3}list\_IDs}{103}{subsubsection.7.2.4.3}%
\contentsline {subsubsection}{\numberline {7.2.4.4}shuffle}{103}{subsubsection.7.2.4.4}%
\contentsline {subsubsection}{\numberline {7.2.4.5}testGenerator}{104}{subsubsection.7.2.4.5}%
\contentsline {section}{\numberline {7.3}Hyper\discretionary {\mbox {\scriptsize $\hookleftarrow $}}{}{}Parameter\discretionary {\mbox {\scriptsize $\hookleftarrow $}}{}{}Opt\discretionary {\mbox {\scriptsize $\hookleftarrow $}}{}{}\_\discretionary {\mbox {\scriptsize $\hookleftarrow $}}{}{}\discretionary {\mbox {\scriptsize $\hookleftarrow $}}{}{}Worker.\discretionary {\mbox {\scriptsize $\hookleftarrow $}}{}{}My\discretionary {\mbox {\scriptsize $\hookleftarrow $}}{}{}Worker Class Reference}{104}{section.7.3}%
\contentsline {subsection}{\numberline {7.3.1}Constructor \& Destructor Documentation}{105}{subsection.7.3.1}%
\contentsline {subsubsection}{\numberline {7.3.1.1}\_\_init\_\_()}{105}{subsubsection.7.3.1.1}%
\contentsline {subsection}{\numberline {7.3.2}Member Function Documentation}{105}{subsection.7.3.2}%
\contentsline {subsubsection}{\numberline {7.3.2.1}compute()}{105}{subsubsection.7.3.2.1}%
\contentsline {subsubsection}{\numberline {7.3.2.2}get\_configspace()}{106}{subsubsection.7.3.2.2}%
\contentsline {subsection}{\numberline {7.3.3}Member Data Documentation}{106}{subsection.7.3.3}%
\contentsline {subsubsection}{\numberline {7.3.3.1}sleep\_interval}{106}{subsubsection.7.3.3.1}%
\contentsline {subsubsection}{\numberline {7.3.3.2}y\_val}{106}{subsubsection.7.3.3.2}%
\contentsline {chapter}{\numberline {8}File Documentation}{107}{chapter.8}%
\contentsline {section}{\numberline {8.1}Error\discretionary {\mbox {\scriptsize $\hookleftarrow $}}{}{}\_\discretionary {\mbox {\scriptsize $\hookleftarrow $}}{}{}from\discretionary {\mbox {\scriptsize $\hookleftarrow $}}{}{}\_\discretionary {\mbox {\scriptsize $\hookleftarrow $}}{}{}formula.\discretionary {\mbox {\scriptsize $\hookleftarrow $}}{}{}py File Reference}{107}{section.8.1}%
\contentsline {section}{\numberline {8.2}Errors\discretionary {\mbox {\scriptsize $\hookleftarrow $}}{}{}\_\discretionary {\mbox {\scriptsize $\hookleftarrow $}}{}{}\discretionary {\mbox {\scriptsize $\hookleftarrow $}}{}{}D\discretionary {\mbox {\scriptsize $\hookleftarrow $}}{}{}E\discretionary {\mbox {\scriptsize $\hookleftarrow $}}{}{}N\discretionary {\mbox {\scriptsize $\hookleftarrow $}}{}{}S\discretionary {\mbox {\scriptsize $\hookleftarrow $}}{}{}\_\discretionary {\mbox {\scriptsize $\hookleftarrow $}}{}{}in\discretionary {\mbox {\scriptsize $\hookleftarrow $}}{}{}\_\discretionary {\mbox {\scriptsize $\hookleftarrow $}}{}{}\discretionary {\mbox {\scriptsize $\hookleftarrow $}}{}{}X\discretionary {\mbox {\scriptsize $\hookleftarrow $}}{}{}\_\discretionary {\mbox {\scriptsize $\hookleftarrow $}}{}{}with\discretionary {\mbox {\scriptsize $\hookleftarrow $}}{}{}\_\discretionary {\mbox {\scriptsize $\hookleftarrow $}}{}{}\discretionary {\mbox {\scriptsize $\hookleftarrow $}}{}{}Detection\discretionary {\mbox {\scriptsize $\hookleftarrow $}}{}{}Noise\discretionary {\mbox {\scriptsize $\hookleftarrow $}}{}{}\_\discretionary {\mbox {\scriptsize $\hookleftarrow $}}{}{}from\discretionary {\mbox {\scriptsize $\hookleftarrow $}}{}{}\_\discretionary {\mbox {\scriptsize $\hookleftarrow $}}{}{}\discretionary {\mbox {\scriptsize $\hookleftarrow $}}{}{}S\discretionary {\mbox {\scriptsize $\hookleftarrow $}}{}{}S\discretionary {\mbox {\scriptsize $\hookleftarrow $}}{}{}S\discretionary {\mbox {\scriptsize $\hookleftarrow $}}{}{}\_\discretionary {\mbox {\scriptsize $\hookleftarrow $}}{}{}in\discretionary {\mbox {\scriptsize $\hookleftarrow $}}{}{}\_\discretionary {\mbox {\scriptsize $\hookleftarrow $}}{}{}\discretionary {\mbox {\scriptsize $\hookleftarrow $}}{}{}X\discretionary {\mbox {\scriptsize $\hookleftarrow $}}{}{}\_\discretionary {\mbox {\scriptsize $\hookleftarrow $}}{}{}with\discretionary {\mbox {\scriptsize $\hookleftarrow $}}{}{}\_\discretionary {\mbox {\scriptsize $\hookleftarrow $}}{}{}\discretionary {\mbox {\scriptsize $\hookleftarrow $}}{}{}Detection\discretionary {\mbox {\scriptsize $\hookleftarrow $}}{}{}Noise.\discretionary {\mbox {\scriptsize $\hookleftarrow $}}{}{}txt File Reference}{108}{section.8.2}%
\contentsline {section}{\numberline {8.3}Hyper\discretionary {\mbox {\scriptsize $\hookleftarrow $}}{}{}Parameter\discretionary {\mbox {\scriptsize $\hookleftarrow $}}{}{}Opt.\discretionary {\mbox {\scriptsize $\hookleftarrow $}}{}{}py File Reference}{108}{section.8.3}%
\contentsline {section}{\numberline {8.4}Plot\discretionary {\mbox {\scriptsize $\hookleftarrow $}}{}{}Interactive\discretionary {\mbox {\scriptsize $\hookleftarrow $}}{}{}Hyper\discretionary {\mbox {\scriptsize $\hookleftarrow $}}{}{}Parameter\discretionary {\mbox {\scriptsize $\hookleftarrow $}}{}{}Opt.\discretionary {\mbox {\scriptsize $\hookleftarrow $}}{}{}py File Reference}{108}{section.8.4}%
\contentsline {section}{\numberline {8.5}R\discretionary {\mbox {\scriptsize $\hookleftarrow $}}{}{}E\discretionary {\mbox {\scriptsize $\hookleftarrow $}}{}{}A\discretionary {\mbox {\scriptsize $\hookleftarrow $}}{}{}D\discretionary {\mbox {\scriptsize $\hookleftarrow $}}{}{}M\discretionary {\mbox {\scriptsize $\hookleftarrow $}}{}{}E.\discretionary {\mbox {\scriptsize $\hookleftarrow $}}{}{}md File Reference}{109}{section.8.5}%
\contentsline {section}{\numberline {8.6}Regression\discretionary {\mbox {\scriptsize $\hookleftarrow $}}{}{}\_\discretionary {\mbox {\scriptsize $\hookleftarrow $}}{}{}\discretionary {\mbox {\scriptsize $\hookleftarrow $}}{}{}Loop\discretionary {\mbox {\scriptsize $\hookleftarrow $}}{}{}\_\discretionary {\mbox {\scriptsize $\hookleftarrow $}}{}{}\discretionary {\mbox {\scriptsize $\hookleftarrow $}}{}{}Noise.\discretionary {\mbox {\scriptsize $\hookleftarrow $}}{}{}py File Reference}{109}{section.8.6}%
\contentsline {section}{\numberline {8.7}Regression\discretionary {\mbox {\scriptsize $\hookleftarrow $}}{}{}\_\discretionary {\mbox {\scriptsize $\hookleftarrow $}}{}{}\discretionary {\mbox {\scriptsize $\hookleftarrow $}}{}{}Loop\discretionary {\mbox {\scriptsize $\hookleftarrow $}}{}{}\_\discretionary {\mbox {\scriptsize $\hookleftarrow $}}{}{}\discretionary {\mbox {\scriptsize $\hookleftarrow $}}{}{}N\discretionary {\mbox {\scriptsize $\hookleftarrow $}}{}{}Shots.\discretionary {\mbox {\scriptsize $\hookleftarrow $}}{}{}py File Reference}{110}{section.8.7}%
\contentsline {section}{\numberline {8.8}source/\discretionary {\mbox {\scriptsize $\hookleftarrow $}}{}{}Data\discretionary {\mbox {\scriptsize $\hookleftarrow $}}{}{}Generator.py File Reference}{111}{section.8.8}%
\contentsline {section}{\numberline {8.9}source/\discretionary {\mbox {\scriptsize $\hookleftarrow $}}{}{}Data\discretionary {\mbox {\scriptsize $\hookleftarrow $}}{}{}Loading.py File Reference}{111}{section.8.9}%
\contentsline {section}{\numberline {8.10}source/\discretionary {\mbox {\scriptsize $\hookleftarrow $}}{}{}Data\discretionary {\mbox {\scriptsize $\hookleftarrow $}}{}{}Preprocessing.py File Reference}{112}{section.8.10}%
\contentsline {section}{\numberline {8.11}source/functions.py File Reference}{112}{section.8.11}%
\contentsline {section}{\numberline {8.12}source/\discretionary {\mbox {\scriptsize $\hookleftarrow $}}{}{}Hyper\discretionary {\mbox {\scriptsize $\hookleftarrow $}}{}{}Parameter\discretionary {\mbox {\scriptsize $\hookleftarrow $}}{}{}Opt\discretionary {\mbox {\scriptsize $\hookleftarrow $}}{}{}\_\discretionary {\mbox {\scriptsize $\hookleftarrow $}}{}{}\discretionary {\mbox {\scriptsize $\hookleftarrow $}}{}{}Worker.py File Reference}{113}{section.8.12}%
\contentsline {section}{\numberline {8.13}source/logo.txt File Reference}{113}{section.8.13}%
\contentsline {section}{\numberline {8.14}source/\discretionary {\mbox {\scriptsize $\hookleftarrow $}}{}{}Models.py File Reference}{113}{section.8.14}%
\contentsline {section}{\numberline {8.15}source/\discretionary {\mbox {\scriptsize $\hookleftarrow $}}{}{}Model\discretionary {\mbox {\scriptsize $\hookleftarrow $}}{}{}Training\discretionary {\mbox {\scriptsize $\hookleftarrow $}}{}{}And\discretionary {\mbox {\scriptsize $\hookleftarrow $}}{}{}Validation.py File Reference}{114}{section.8.15}%
\contentsline {section}{\numberline {8.16}source/\discretionary {\mbox {\scriptsize $\hookleftarrow $}}{}{}Output.py File Reference}{114}{section.8.16}%
\contentsline {section}{\numberline {8.17}source/rel\discretionary {\mbox {\scriptsize $\hookleftarrow $}}{}{}\_\discretionary {\mbox {\scriptsize $\hookleftarrow $}}{}{}phase\discretionary {\mbox {\scriptsize $\hookleftarrow $}}{}{}\_\discretionary {\mbox {\scriptsize $\hookleftarrow $}}{}{}package.py File Reference}{115}{section.8.17}%
\contentsline {section}{\numberline {8.18}source/\discretionary {\mbox {\scriptsize $\hookleftarrow $}}{}{}Runtime\discretionary {\mbox {\scriptsize $\hookleftarrow $}}{}{}\_\discretionary {\mbox {\scriptsize $\hookleftarrow $}}{}{}check.py File Reference}{116}{section.8.18}%
\contentsline {section}{\numberline {8.19}source/test\discretionary {\mbox {\scriptsize $\hookleftarrow $}}{}{}\_\discretionary {\mbox {\scriptsize $\hookleftarrow $}}{}{}interpolate\discretionary {\mbox {\scriptsize $\hookleftarrow $}}{}{}\_\discretionary {\mbox {\scriptsize $\hookleftarrow $}}{}{}spline.py File Reference}{116}{section.8.19}%
\contentsline {section}{\numberline {8.20}source/\discretionary {\mbox {\scriptsize $\hookleftarrow $}}{}{}Visualization.py File Reference}{117}{section.8.20}%
\contentsline {section}{\numberline {8.21}source/\discretionary {\mbox {\scriptsize $\hookleftarrow $}}{}{}Visualization\discretionary {\mbox {\scriptsize $\hookleftarrow $}}{}{}New.py File Reference}{118}{section.8.21}%
\contentsline {section}{\numberline {8.22}U\discretionary {\mbox {\scriptsize $\hookleftarrow $}}{}{}N\discretionary {\mbox {\scriptsize $\hookleftarrow $}}{}{}I\discretionary {\mbox {\scriptsize $\hookleftarrow $}}{}{}Q\discretionary {\mbox {\scriptsize $\hookleftarrow $}}{}{}O\discretionary {\mbox {\scriptsize $\hookleftarrow $}}{}{}R\discretionary {\mbox {\scriptsize $\hookleftarrow $}}{}{}N.\discretionary {\mbox {\scriptsize $\hookleftarrow $}}{}{}ipynb File Reference}{119}{section.8.22}%
\contentsline {section}{\numberline {8.23}U\discretionary {\mbox {\scriptsize $\hookleftarrow $}}{}{}N\discretionary {\mbox {\scriptsize $\hookleftarrow $}}{}{}I\discretionary {\mbox {\scriptsize $\hookleftarrow $}}{}{}Q\discretionary {\mbox {\scriptsize $\hookleftarrow $}}{}{}O\discretionary {\mbox {\scriptsize $\hookleftarrow $}}{}{}R\discretionary {\mbox {\scriptsize $\hookleftarrow $}}{}{}N.\discretionary {\mbox {\scriptsize $\hookleftarrow $}}{}{}py File Reference}{119}{section.8.23}%
\contentsline {section}{\numberline {8.24}Viz\discretionary {\mbox {\scriptsize $\hookleftarrow $}}{}{}Grid.\discretionary {\mbox {\scriptsize $\hookleftarrow $}}{}{}txt File Reference}{120}{section.8.24}%
\contentsline {section}{\numberline {8.25}Xboundaries.\discretionary {\mbox {\scriptsize $\hookleftarrow $}}{}{}txt File Reference}{120}{section.8.25}%
